relazioni/esperienza_4/codici/WaveData540.csv

#timebase=2000000(ps)
,#voltbase=20000000(uV)
#size=4064
1.00000E-08,14.000
2.00000E-08,13.600
3.00000E-08,14.000
4.00000E-08,13.600
5.00000E-08,13.600
6.00000E-08,14.000
7.00000E-08,13.600
8.00000E-08,13.600
9.00000E-08,14.400
1.00000E-07,14.400
1.10000E-07,13.600
1.20000E-07,14.000
1.30000E-07,13.600
1.40000E-07,14.000
1.50000E-07,13.600
1.60000E-07,14.000
1.70000E-07,14.000
1.80000E-07,13.600
1.90000E-07,14.400
2.00000E-07,13.600
2.10000E-07,13.600
2.20000E-07,14.400
2.30000E-07,13.600
2.40000E-07,14.400
2.50000E-07,14.000
2.60000E-07,14.000
2.70000E-07,14.400
2.80000E-07,14.000
2.90000E-07,14.400
3.00000E-07,14.000
3.10000E-07,14.400
3.20000E-07,14.000
3.30000E-07,13.600
3.40000E-07,13.600
3.50000E-07,14.000
3.60000E-07,14.400
3.70000E-07,14.000
3.80000E-07,14.400
3.90000E-07,14.000
4.00000E-07,14.000
4.10000E-07,14.000
4.20000E-07,14.000
4.30000E-07,14.000
4.40000E-07,14.000
4.50000E-07,14.400
4.60000E-07,14.400
4.70000E-07,14.800
4.80000E-07,14.800
4.90000E-07,14.400
5.00000E-07,14.400
5.10000E-07,14.400
5.20000E-07,14.400
5.30000E-07,14.400
5.40000E-07,14.000
5.50000E-07,14.400
5.60000E-07,14.400
5.70000E-07,14.000
5.80000E-07,14.400
5.90000E-07,14.400
6.00000E-07,14.400
6.10000E-07,14.400
6.20000E-07,14.400
6.30000E-07,14.800
6.40000E-07,14.400
6.50000E-07,14.000
6.60000E-07,14.400
6.70000E-07,14.400
6.80000E-07,14.400
6.90000E-07,14.400
7.00000E-07,14.800
7.10000E-07,14.800
7.20000E-07,14.400
7.30000E-07,14.400
7.40000E-07,14.400
7.50000E-07,14.400
7.60000E-07,14.400
7.70000E-07,14.000
7.80000E-07,14.400
7.90000E-07,14.400
8.00000E-07,14.400
8.10000E-07,14.400
8.20000E-07,14.800
8.30000E-07,14.400
8.40000E-07,14.400
8.50000E-07,14.800
8.60000E-07,14.400
8.70000E-07,14.400
8.80000E-07,14.400
8.90000E-07,14.400
9.00000E-07,14.800
9.10000E-07,14.400
9.20000E-07,14.400
9.30000E-07,14.000
9.40000E-07,14.400
9.50000E-07,14.400
9.60000E-07,14.400
9.70000E-07,14.400
9.80000E-07,14.800
9.90000E-07,14.800
1.00000E-06,14.800
1.01000E-06,14.800
1.02000E-06,14.800
1.03000E-06,14.800
1.04000E-06,14.800
1.05000E-06,14.400
1.06000E-06,14.000
1.07000E-06,14.800
1.08000E-06,14.400
1.09000E-06,15.200
1.10000E-06,15.600
1.11000E-06,14.800
1.12000E-06,15.200
1.13000E-06,14.800
1.14000E-06,14.800
1.15000E-06,14.800
1.16000E-06,14.800
1.17000E-06,14.800
1.18000E-06,14.400
1.19000E-06,15.600
1.20000E-06,14.800
1.21000E-06,14.400
1.22000E-06,14.800
1.23000E-06,14.400
1.24000E-06,14.800
1.25000E-06,14.800
1.26000E-06,14.400
1.27000E-06,14.400
1.28000E-06,14.400
1.29000E-06,15.200
1.30000E-06,14.800
1.31000E-06,14.800
1.32000E-06,14.800
1.33000E-06,14.800
1.34000E-06,14.400
1.35000E-06,14.800
1.36000E-06,14.400
1.37000E-06,14.800
1.38000E-06,14.400
1.39000E-06,15.200
1.40000E-06,14.800
1.41000E-06,15.200
1.42000E-06,15.200
1.43000E-06,14.400
1.44000E-06,14.400
1.45000E-06,14.800
1.46000E-06,15.200
1.47000E-06,14.800
1.48000E-06,15.600
1.49000E-06,14.800
1.50000E-06,15.200
1.51000E-06,15.200
1.52000E-06,15.200
1.53000E-06,14.800
1.54000E-06,15.200
1.55000E-06,14.800
1.56000E-06,15.200
1.57000E-06,15.200
1.58000E-06,15.200
1.59000E-06,15.200
1.60000E-06,14.800
1.61000E-06,14.400
1.62000E-06,14.800
1.63000E-06,14.400
1.64000E-06,15.200
1.65000E-06,15.200
1.66000E-06,15.200
1.67000E-06,15.600
1.68000E-06,15.600
1.69000E-06,14.800
1.70000E-06,15.200
1.71000E-06,15.200
1.72000E-06,15.200
1.73000E-06,15.600
1.74000E-06,15.200
1.75000E-06,15.200
1.76000E-06,14.800
1.77000E-06,14.800
1.78000E-06,14.800
1.79000E-06,15.200
1.80000E-06,14.800
1.81000E-06,15.200
1.82000E-06,15.600
1.83000E-06,15.600
1.84000E-06,15.200
1.85000E-06,15.200
1.86000E-06,14.800
1.87000E-06,15.200
1.88000E-06,15.200
1.89000E-06,15.600
1.90000E-06,15.200
1.91000E-06,15.200
1.92000E-06,15.200
1.93000E-06,15.200
1.94000E-06,14.800
1.95000E-06,15.200
1.96000E-06,15.600
1.97000E-06,15.600
1.98000E-06,14.800
1.99000E-06,15.200
2.00000E-06,15.200
2.01000E-06,15.200
2.02000E-06,15.200
2.03000E-06,15.200
2.04000E-06,15.200
2.05000E-06,15.600
2.06000E-06,15.200
2.07000E-06,15.200
2.08000E-06,15.600
2.09000E-06,15.200
2.10000E-06,16.000
2.11000E-06,15.600
2.12000E-06,15.200
2.13000E-06,15.200
2.14000E-06,15.200
2.15000E-06,15.200
2.16000E-06,15.200
2.17000E-06,15.200
2.18000E-06,15.200
2.19000E-06,14.800
2.20000E-06,15.200
2.21000E-06,15.200
2.22000E-06,15.200
2.23000E-06,15.200
2.24000E-06,15.600
2.25000E-06,15.600
2.26000E-06,15.600
2.27000E-06,16.000
2.28000E-06,16.000
2.29000E-06,15.600
2.30000E-06,16.000
2.31000E-06,15.600
2.32000E-06,15.600
2.33000E-06,15.600
2.34000E-06,15.200
2.35000E-06,16.000
2.36000E-06,15.600
2.37000E-06,15.600
2.38000E-06,15.200
2.39000E-06,15.600
2.40000E-06,14.800
2.41000E-06,15.200
2.42000E-06,15.200
2.43000E-06,15.600
2.44000E-06,14.800
2.45000E-06,15.200
2.46000E-06,15.200
2.47000E-06,14.800
2.48000E-06,15.200
2.49000E-06,15.600
2.50000E-06,15.600
2.51000E-06,15.600
2.52000E-06,15.600
2.53000E-06,15.600
2.54000E-06,15.600
2.55000E-06,16.000
2.56000E-06,16.000
2.57000E-06,15.200
2.58000E-06,15.200
2.59000E-06,15.200
2.60000E-06,15.600
2.61000E-06,16.000
2.62000E-06,15.600
2.63000E-06,16.000
2.64000E-06,15.200
2.65000E-06,16.400
2.66000E-06,15.200
2.67000E-06,16.400
2.68000E-06,15.600
2.69000E-06,16.000
2.70000E-06,16.000
2.71000E-06,16.000
2.72000E-06,15.600
2.73000E-06,16.400
2.74000E-06,16.400
2.75000E-06,15.200
2.76000E-06,14.800
2.77000E-06,15.200
2.78000E-06,15.600
2.79000E-06,15.600
2.80000E-06,15.600
2.81000E-06,15.600
2.82000E-06,15.200
2.83000E-06,16.000
2.84000E-06,16.000
2.85000E-06,16.000
2.86000E-06,15.600
2.87000E-06,15.600
2.88000E-06,16.000
2.89000E-06,15.600
2.90000E-06,15.600
2.91000E-06,15.600
2.92000E-06,16.000
2.93000E-06,15.600
2.94000E-06,15.600
2.95000E-06,16.400
2.96000E-06,15.600
2.97000E-06,15.600
2.98000E-06,15.600
2.99000E-06,15.600
3.00000E-06,15.600
3.01000E-06,15.600
3.02000E-06,15.200
3.03000E-06,16.400
3.04000E-06,15.600
3.05000E-06,15.600
3.06000E-06,15.600
3.07000E-06,15.600
3.08000E-06,16.000
3.09000E-06,16.400
3.10000E-06,15.600
3.11000E-06,15.600
3.12000E-06,15.200
3.13000E-06,15.200
3.14000E-06,15.600
3.15000E-06,15.600
3.16000E-06,15.600
3.17000E-06,15.600
3.18000E-06,15.600
3.19000E-06,15.600
3.20000E-06,15.600
3.21000E-06,15.600
3.22000E-06,15.600
3.23000E-06,15.600
3.24000E-06,16.000
3.25000E-06,16.000
3.26000E-06,15.600
3.27000E-06,15.600
3.28000E-06,16.000
3.29000E-06,15.600
3.30000E-06,15.600
3.31000E-06,16.000
3.32000E-06,15.600
3.33000E-06,16.000
3.34000E-06,16.000
3.35000E-06,16.000
3.36000E-06,15.600
3.37000E-06,15.600
3.38000E-06,16.000
3.39000E-06,15.600
3.40000E-06,15.600
3.41000E-06,15.600
3.42000E-06,15.600
3.43000E-06,16.000
3.44000E-06,15.600
3.45000E-06,15.600
3.46000E-06,15.600
3.47000E-06,15.600
3.48000E-06,16.000
3.49000E-06,15.600
3.50000E-06,15.600
3.51000E-06,16.000
3.52000E-06,15.600
3.53000E-06,16.000
3.54000E-06,15.600
3.55000E-06,15.600
3.56000E-06,16.000
3.57000E-06,15.600
3.58000E-06,15.600
3.59000E-06,16.400
3.60000E-06,15.600
3.61000E-06,15.600
3.62000E-06,16.000
3.63000E-06,15.600
3.64000E-06,16.000
3.65000E-06,15.200
3.66000E-06,15.200
3.67000E-06,15.600
3.68000E-06,15.600
3.69000E-06,15.600
3.70000E-06,16.000
3.71000E-06,16.000
3.72000E-06,16.000
3.73000E-06,15.600
3.74000E-06,15.600
3.75000E-06,16.000
3.76000E-06,15.600
3.77000E-06,16.000
3.78000E-06,16.000
3.79000E-06,16.000
3.80000E-06,16.000
3.81000E-06,16.000
3.82000E-06,15.600
3.83000E-06,15.600
3.84000E-06,15.600
3.85000E-06,15.600
3.86000E-06,15.600
3.87000E-06,16.400
3.88000E-06,16.000
3.89000E-06,16.400
3.90000E-06,16.800
3.91000E-06,16.400
3.92000E-06,15.600
3.93000E-06,15.600
3.94000E-06,15.600
3.95000E-06,16.400
3.96000E-06,16.400
3.97000E-06,15.200
3.98000E-06,15.600
3.99000E-06,15.600
4.00000E-06,15.600
4.01000E-06,15.200
4.02000E-06,16.400
4.03000E-06,15.600
4.04000E-06,16.000
4.05000E-06,16.000
4.06000E-06,16.000
4.07000E-06,15.600
4.08000E-06,15.600
4.09000E-06,16.000
4.10000E-06,15.600
4.11000E-06,15.600
4.12000E-06,16.000
4.13000E-06,15.600
4.14000E-06,16.000
4.15000E-06,16.000
4.16000E-06,16.000
4.17000E-06,15.600
4.18000E-06,16.000
4.19000E-06,16.000
4.20000E-06,15.600
4.21000E-06,16.000
4.22000E-06,16.000
4.23000E-06,16.000
4.24000E-06,16.000
4.25000E-06,16.000
4.26000E-06,16.000
4.27000E-06,16.000
4.28000E-06,16.000
4.29000E-06,16.000
4.30000E-06,16.000
4.31000E-06,16.000
4.32000E-06,16.000
4.33000E-06,15.600
4.34000E-06,16.000
4.35000E-06,15.600
4.36000E-06,16.000
4.37000E-06,15.600
4.38000E-06,15.600
4.39000E-06,16.000
4.40000E-06,15.600
4.41000E-06,15.600
4.42000E-06,16.000
4.43000E-06,15.600
4.44000E-06,16.000
4.45000E-06,16.000
4.46000E-06,16.400
4.47000E-06,16.400
4.48000E-06,16.000
4.49000E-06,16.400
4.50000E-06,16.400
4.51000E-06,16.000
4.52000E-06,16.000
4.53000E-06,16.000
4.54000E-06,16.000
4.55000E-06,16.000
4.56000E-06,16.000
4.57000E-06,15.600
4.58000E-06,15.600
4.59000E-06,15.600
4.60000E-06,15.600
4.61000E-06,16.000
4.62000E-06,16.400
4.63000E-06,16.400
4.64000E-06,16.400
4.65000E-06,16.400
4.66000E-06,15.600
4.67000E-06,16.000
4.68000E-06,16.000
4.69000E-06,16.000
4.70000E-06,16.400
4.71000E-06,16.400
4.72000E-06,16.400
4.73000E-06,16.000
4.74000E-06,16.000
4.75000E-06,15.600
4.76000E-06,16.000
4.77000E-06,15.600
4.78000E-06,16.000
4.79000E-06,16.000
4.80000E-06,16.000
4.81000E-06,16.000
4.82000E-06,16.000
4.83000E-06,16.400
4.84000E-06,15.600
4.85000E-06,16.000
4.86000E-06,16.400
4.87000E-06,16.000
4.88000E-06,15.600
4.89000E-06,16.000
4.90000E-06,16.400
4.91000E-06,16.400
4.92000E-06,15.600
4.93000E-06,15.600
4.94000E-06,16.000
4.95000E-06,16.000
4.96000E-06,16.000
4.97000E-06,16.000
4.98000E-06,16.000
4.99000E-06,16.400
5.00000E-06,15.600
5.01000E-06,16.000
5.02000E-06,16.000
5.03000E-06,16.000
5.04000E-06,16.000
5.05000E-06,16.000
5.06000E-06,16.000
5.07000E-06,16.000
5.08000E-06,16.000
5.09000E-06,16.400
5.10000E-06,16.000
5.11000E-06,16.000
5.12000E-06,16.000
5.13000E-06,16.000
5.14000E-06,16.000
5.15000E-06,16.400
5.16000E-06,15.600
5.17000E-06,16.000
5.18000E-06,16.000
5.19000E-06,16.000
5.20000E-06,16.000
5.21000E-06,16.400
5.22000E-06,16.400
5.23000E-06,15.600
5.24000E-06,15.600
5.25000E-06,16.400
5.26000E-06,16.800
5.27000E-06,16.400
5.28000E-06,15.600
5.29000E-06,16.400
5.30000E-06,16.400
5.31000E-06,15.600
5.32000E-06,16.000
5.33000E-06,16.000
5.34000E-06,16.000
5.35000E-06,16.400
5.36000E-06,16.400
5.37000E-06,16.000
5.38000E-06,16.400
5.39000E-06,16.000
5.40000E-06,16.000
5.41000E-06,16.000
5.42000E-06,15.600
5.43000E-06,16.400
5.44000E-06,15.600
5.45000E-06,16.400
5.46000E-06,15.600
5.47000E-06,16.000
5.48000E-06,16.000
5.49000E-06,16.000
5.50000E-06,16.000
5.51000E-06,16.000
5.52000E-06,16.800
5.53000E-06,16.400
5.54000E-06,16.000
5.55000E-06,16.000
5.56000E-06,16.000
5.57000E-06,16.000
5.58000E-06,16.000
5.59000E-06,16.400
5.60000E-06,16.400
5.61000E-06,16.400
5.62000E-06,16.400
5.63000E-06,15.600
5.64000E-06,15.600
5.65000E-06,16.400
5.66000E-06,16.400
5.67000E-06,16.400
5.68000E-06,16.400
5.69000E-06,16.800
5.70000E-06,16.800
5.71000E-06,16.400
5.72000E-06,16.800
5.73000E-06,16.400
5.74000E-06,16.400
5.75000E-06,16.400
5.76000E-06,15.600
5.77000E-06,16.000
5.78000E-06,16.000
5.79000E-06,16.000
5.80000E-06,16.000
5.81000E-06,16.400
5.82000E-06,16.400
5.83000E-06,16.400
5.84000E-06,16.400
5.85000E-06,16.000
5.86000E-06,16.400
5.87000E-06,16.400
5.88000E-06,16.400
5.89000E-06,16.800
5.90000E-06,16.400
5.91000E-06,16.400
5.92000E-06,16.400
5.93000E-06,16.000
5.94000E-06,16.400
5.95000E-06,16.000
5.96000E-06,15.600
5.97000E-06,16.000
5.98000E-06,15.600
5.99000E-06,16.400
6.00000E-06,16.000
6.01000E-06,16.400
6.02000E-06,16.800
6.03000E-06,16.400
6.04000E-06,16.400
6.05000E-06,16.000
6.06000E-06,15.600
6.07000E-06,16.400
6.08000E-06,16.000
6.09000E-06,16.400
6.10000E-06,16.400
6.11000E-06,16.400
6.12000E-06,16.000
6.13000E-06,16.400
6.14000E-06,16.000
6.15000E-06,15.600
6.16000E-06,16.000
6.17000E-06,16.400
6.18000E-06,16.800
6.19000E-06,16.000
6.20000E-06,16.000
6.21000E-06,15.200
6.22000E-06,16.400
6.23000E-06,16.400
6.24000E-06,16.400
6.25000E-06,16.400
6.26000E-06,16.000
6.27000E-06,15.600
6.28000E-06,15.600
6.29000E-06,16.800
6.30000E-06,16.400
6.31000E-06,16.800
6.32000E-06,16.400
6.33000E-06,16.800
6.34000E-06,16.400
6.35000E-06,16.800
6.36000E-06,15.600
6.37000E-06,15.600
6.38000E-06,16.000
6.39000E-06,16.000
6.40000E-06,16.000
6.41000E-06,16.000
6.42000E-06,16.000
6.43000E-06,16.400
6.44000E-06,16.400
6.45000E-06,16.400
6.46000E-06,16.000
6.47000E-06,16.400
6.48000E-06,16.400
6.49000E-06,16.000
6.50000E-06,16.000
6.51000E-06,16.400
6.52000E-06,16.000
6.53000E-06,16.000
6.54000E-06,16.000
6.55000E-06,16.400
6.56000E-06,16.400
6.57000E-06,15.600
6.58000E-06,16.400
6.59000E-06,16.000
6.60000E-06,16.400
6.61000E-06,16.400
6.62000E-06,16.400
6.63000E-06,16.400
6.64000E-06,16.400
6.65000E-06,16.400
6.66000E-06,16.400
6.67000E-06,16.400
6.68000E-06,16.400
6.69000E-06,16.400
6.70000E-06,16.400
6.71000E-06,16.800
6.72000E-06,16.800
6.73000E-06,16.400
6.74000E-06,15.600
6.75000E-06,16.400
6.76000E-06,16.000
6.77000E-06,16.000
6.78000E-06,16.400
6.79000E-06,16.000
6.80000E-06,15.600
6.81000E-06,15.600
6.82000E-06,16.000
6.83000E-06,16.800
6.84000E-06,16.800
6.85000E-06,16.800
6.86000E-06,16.800
6.87000E-06,16.400
6.88000E-06,16.400
6.89000E-06,16.800
6.90000E-06,16.400
6.91000E-06,16.400
6.92000E-06,16.800
6.93000E-06,16.400
6.94000E-06,16.400
6.95000E-06,16.400
6.96000E-06,16.400
6.97000E-06,16.400
6.98000E-06,16.400
6.99000E-06,16.400
7.00000E-06,16.000
7.01000E-06,16.000
7.02000E-06,16.000
7.03000E-06,15.600
7.04000E-06,15.600
7.05000E-06,16.400
7.06000E-06,16.400
7.07000E-06,16.400
7.08000E-06,16.400
7.09000E-06,16.400
7.10000E-06,16.000
7.11000E-06,16.400
7.12000E-06,16.400
7.13000E-06,17.200
7.14000E-06,16.400
7.15000E-06,15.600
7.16000E-06,16.000
7.17000E-06,16.400
7.18000E-06,16.000
7.19000E-06,16.000
7.20000E-06,16.400
7.21000E-06,16.400
7.22000E-06,16.400
7.23000E-06,16.000
7.24000E-06,16.400
7.25000E-06,16.000
7.26000E-06,16.000
7.27000E-06,16.400
7.28000E-06,16.800
7.29000E-06,16.000
7.30000E-06,16.000
7.31000E-06,16.400
7.32000E-06,16.800
7.33000E-06,16.400
7.34000E-06,16.000
7.35000E-06,16.000
7.36000E-06,16.000
7.37000E-06,15.200
7.38000E-06,14.400
7.39000E-06,14.400
7.40000E-06,15.200
7.41000E-06,15.200
7.42000E-06,14.800
7.43000E-06,14.400
7.44000E-06,14.400
7.45000E-06,14.400
7.46000E-06,14.400
7.47000E-06,15.200
7.48000E-06,14.800
7.49000E-06,14.800
7.50000E-06,14.000
7.51000E-06,13.200
7.52000E-06,14.000
7.53000E-06,12.800
7.54000E-06,13.200
7.55000E-06,13.600
7.56000E-06,13.200
7.57000E-06,12.800
7.58000E-06,12.400
7.59000E-06,12.400
7.60000E-06,12.400
7.61000E-06,12.800
7.62000E-06,12.400
7.63000E-06,12.800
7.64000E-06,12.000
7.65000E-06,12.000
7.66000E-06,11.600
7.67000E-06,12.000
7.68000E-06,12.000
7.69000E-06,11.600
7.70000E-06,11.200
7.71000E-06,10.800
7.72000E-06,11.600
7.73000E-06,10.800
7.74000E-06,10.800
7.75000E-06,10.800
7.76000E-06,10.400
7.77000E-06,10.800
7.78000E-06,10.400
7.79000E-06,10.800
7.80000E-06,10.400
7.81000E-06,10.400
7.82000E-06,10.400
7.83000E-06,10.400
7.84000E-06,10.800
7.85000E-06,10.800
7.86000E-06,9.600
7.87000E-06,10.000
7.88000E-06,9.600
7.89000E-06,9.600
7.90000E-06,9.200
7.91000E-06,9.600
7.92000E-06,9.200
7.93000E-06,9.200
7.94000E-06,8.800
7.95000E-06,8.800
7.96000E-06,8.800
7.97000E-06,8.400
7.98000E-06,8.400
7.99000E-06,8.400
8.00000E-06,8.400
8.01000E-06,8.400
8.02000E-06,8.400
8.03000E-06,8.400
8.04000E-06,8.000
8.05000E-06,8.000
8.06000E-06,8.000
8.07000E-06,8.000
8.08000E-06,8.000
8.09000E-06,8.000
8.10000E-06,7.200
8.11000E-06,7.600
8.12000E-06,7.600
8.13000E-06,7.200
8.14000E-06,7.200
8.15000E-06,7.200
8.16000E-06,6.800
8.17000E-06,7.200
8.18000E-06,6.800
8.19000E-06,6.800
8.20000E-06,6.800
8.21000E-06,6.800
8.22000E-06,6.400
8.23000E-06,6.000
8.24000E-06,6.800
8.25000E-06,6.000
8.26000E-06,6.000
8.27000E-06,6.000
8.28000E-06,6.400
8.29000E-06,6.000
8.30000E-06,6.400
8.31000E-06,5.600
8.32000E-06,6.000
8.33000E-06,6.000
8.34000E-06,6.400
8.35000E-06,5.600
8.36000E-06,4.800
8.37000E-06,4.800
8.38000E-06,5.200
8.39000E-06,5.200
8.40000E-06,5.200
8.41000E-06,4.800
8.42000E-06,4.800
8.43000E-06,5.200
8.44000E-06,5.200
8.45000E-06,5.600
8.46000E-06,4.800
8.47000E-06,4.400
8.48000E-06,4.800
8.49000E-06,5.200
8.50000E-06,5.200
8.51000E-06,4.400
8.52000E-06,4.400
8.53000E-06,3.600
8.54000E-06,4.400
8.55000E-06,4.400
8.56000E-06,4.000
8.57000E-06,4.000
8.58000E-06,3.600
8.59000E-06,4.000
8.60000E-06,3.600
8.61000E-06,3.200
8.62000E-06,3.600
8.63000E-06,4.000
8.64000E-06,3.600
8.65000E-06,3.200
8.66000E-06,4.000
8.67000E-06,3.200
8.68000E-06,3.600
8.69000E-06,3.600
8.70000E-06,3.600
8.71000E-06,2.400
8.72000E-06,3.600
8.73000E-06,2.400
8.74000E-06,2.800
8.75000E-06,2.800
8.76000E-06,2.400
8.77000E-06,2.400
8.78000E-06,2.000
8.79000E-06,1.600
8.80000E-06,2.800
8.81000E-06,2.000
8.82000E-06,2.000
8.83000E-06,2.000
8.84000E-06,2.400
8.85000E-06,2.000
8.86000E-06,2.000
8.87000E-06,2.000
8.88000E-06,2.000
8.89000E-06,1.600
8.90000E-06,1.600
8.91000E-06,1.600
8.92000E-06,1.200
8.93000E-06,1.200
8.94000E-06,2.000
8.95000E-06,1.600
8.96000E-06,1.600
8.97000E-06,1.200
8.98000E-06,1.600
8.99000E-06,0.800
9.00000E-06,0.400
9.01000E-06,0.800
9.02000E-06,0.400
9.03000E-06,0.400
9.04000E-06,0.400
9.05000E-06,0.000
9.06000E-06,0.000
9.07000E-06,0.800
9.08000E-06,0.800
9.09000E-06,0.800
9.10000E-06,0.800
9.11000E-06,0.400
9.12000E-06,0.400
9.13000E-06,0.000
9.14000E-06,0.400
9.15000E-06,0.400
9.16000E-06,0.400
9.17000E-06,0.000
9.18000E-06,0.000
9.19000E-06,0.000
9.20000E-06,-0.400
9.21000E-06,0.000
9.22000E-06,-0.400
9.23000E-06,0.000
9.24000E-06,-0.400
9.25000E-06,0.000
9.26000E-06,0.000
9.27000E-06,0.000
9.28000E-06,-0.400
9.29000E-06,-0.400
9.30000E-06,-0.400
9.31000E-06,-0.400
9.32000E-06,-0.800
9.33000E-06,-0.400
9.34000E-06,-0.400
9.35000E-06,-1.200
9.36000E-06,-1.200
9.37000E-06,-1.200
9.38000E-06,-0.800
9.39000E-06,-1.200
9.40000E-06,-1.200
9.41000E-06,-1.200
9.42000E-06,-1.200
9.43000E-06,-0.800
9.44000E-06,-0.800
9.45000E-06,-1.600
9.46000E-06,-1.200
9.47000E-06,-1.600
9.48000E-06,-1.600
9.49000E-06,-1.600
9.50000E-06,-1.200
9.51000E-06,-1.600
9.52000E-06,-1.600
9.53000E-06,-1.600
9.54000E-06,-1.200
9.55000E-06,-1.600
9.56000E-06,-1.600
9.57000E-06,-1.600
9.58000E-06,-2.000
9.59000E-06,-2.400
9.60000E-06,-2.000
9.61000E-06,-2.000
9.62000E-06,-1.600
9.63000E-06,-2.000
9.64000E-06,-2.400
9.65000E-06,-2.400
9.66000E-06,-2.400
9.67000E-06,-2.400
9.68000E-06,-2.400
9.69000E-06,-2.400
9.70000E-06,-2.400
9.71000E-06,-2.400
9.72000E-06,-2.400
9.73000E-06,-2.000
9.74000E-06,-2.400
9.75000E-06,-2.400
9.76000E-06,-2.400
9.77000E-06,-2.800
9.78000E-06,-3.200
9.79000E-06,-2.400
9.80000E-06,-2.400
9.81000E-06,-3.200
9.82000E-06,-2.800
9.83000E-06,-3.200
9.84000E-06,-2.800
9.85000E-06,-3.200
9.86000E-06,-3.200
9.87000E-06,-2.800
9.88000E-06,-2.800
9.89000E-06,-2.800
9.90000E-06,-3.200
9.91000E-06,-3.200
9.92000E-06,-2.800
9.93000E-06,-2.800
9.94000E-06,-2.800
9.95000E-06,-3.200
9.96000E-06,-3.600
9.97000E-06,-3.200
9.98000E-06,-3.600
9.99000E-06,-3.600
1.00000E-05,-3.200
1.00100E-05,-3.600
1.00200E-05,-3.200
1.00300E-05,-3.600
1.00400E-05,-3.200
1.00500E-05,-4.000
1.00600E-05,-4.000
1.00700E-05,-3.200
1.00800E-05,-3.600
1.00900E-05,-3.600
1.01000E-05,-3.600
1.01100E-05,-3.600
1.01200E-05,-4.000
1.01300E-05,-3.600
1.01400E-05,-4.400
1.01500E-05,-4.000
1.01600E-05,-4.000
1.01700E-05,-4.400
1.01800E-05,-4.000
1.01900E-05,-4.400
1.02000E-05,-4.400
1.02100E-05,-4.000
1.02200E-05,-4.400
1.02300E-05,-4.400
1.02400E-05,-4.400
1.02500E-05,-4.000
1.02600E-05,-4.400
1.02700E-05,-4.800
1.02800E-05,-4.400
1.02900E-05,-4.000
1.03000E-05,-4.400
1.03100E-05,-4.400
1.03200E-05,-4.800
1.03300E-05,-4.800
1.03400E-05,-4.400
1.03500E-05,-5.200
1.03600E-05,-4.800
1.03700E-05,-4.800
1.03800E-05,-5.200
1.03900E-05,-5.600
1.04000E-05,-4.800
1.04100E-05,-5.200
1.04200E-05,-4.800
1.04300E-05,-4.800
1.04400E-05,-4.800
1.04500E-05,-5.200
1.04600E-05,-4.800
1.04700E-05,-4.800
1.04800E-05,-5.200
1.04900E-05,-5.200
1.05000E-05,-4.800
1.05100E-05,-4.800
1.05200E-05,-4.800
1.05300E-05,-4.800
1.05400E-05,-5.200
1.05500E-05,-5.200
1.05600E-05,-5.600
