relazioni/esperienza_esame/codici/file_csv_manu/WaveData599.csv

#timebase=2000000000(ps),,,,,,,,,,,,
,#voltbase=5000000(uV),,,,,,,,,,,
#size=4064,,,,,,,,,,,,
2.00000E-05,11.2,,V_min,V_max,V_ripple,V_medio,fattore di ripple,J_sp,T/2,?,J_th,K
4.00000E-05,11,,11.6,7.4,4.2,9.5,0.442105263,1.567567568,0.01,0.32571,0.969764366,1.616441707
6.00000E-05,11.4,,,,,,,,,,,
8.00000E-05,11.2,,,,,,,,,,,
1.00000E-04,11.2,,,,,,,,,,,
1.20000E-04,11.4,,,,,,,,,,,
1.40000E-04,11.2,,,,,,,,,,,
1.60000E-04,11.2,,,,,,,,,,,
1.80000E-04,11.4,,,,,,,,,,,
2.00000E-04,11.2,,,,,,,,,,,
2.20000E-04,11.4,,,,,,,,,,,
2.40000E-04,11,,,,,,,,,,,
2.60000E-04,11,,,,,,,,,,,
2.80000E-04,11.2,,,,,,,,,,,
3.00000E-04,11.2,,,,,,,,,,,
3.20000E-04,11.2,,,,,,,,,,,
3.40000E-04,11.4,,,,,,,,,,,
3.60000E-04,11.2,,,,,,,,,,,
3.80000E-04,11.2,,,,,,,,,,,
4.00000E-04,11.4,,,,,,,,,,,
4.20000E-04,11.4,,,,,,,,,,,
4.40000E-04,11.2,,,,,,,,,,,
4.60000E-04,11,,,,,,,,,,,
4.80000E-04,11,,,,,,,,,,,
5.00000E-04,11.2,,,,,,,,,,,
5.20000E-04,11.4,,,,,,,,,,,
5.40000E-04,11.4,,,,,,,,,,,
5.60000E-04,11.4,,,,,,,,,,,
5.80000E-04,11.4,,,,,,,,,,,
6.00000E-04,11.4,,,,,,,,,,,
6.20000E-04,11.2,,,,,,,,,,,
6.40000E-04,11.4,,,,,,,,,,,
6.60000E-04,11.4,,,,,,,,,,,
6.80000E-04,11.6,,,,,,,,,,,
7.00000E-04,11.6,,,,,,,,,,,
7.20000E-04,11.6,,,,,,,,,,,
7.40000E-04,11.2,,,,,,,,,,,
7.60000E-04,11.4,,,,,,,,,,,
7.80000E-04,11.4,,,,,,,,,,,
8.00000E-04,11.2,,,,,,,,,,,
8.20000E-04,11.4,,,,,,,,,,,
8.40000E-04,11.4,,,,,,,,,,,
8.60000E-04,11.4,,,,,,,,,,,
8.80000E-04,11.2,,,,,,,,,,,
9.00000E-04,11.4,,,,,,,,,,,
9.20000E-04,11.6,,,,,,,,,,,
9.40000E-04,11.6,,,,,,,,,,,
9.60000E-04,11.6,,,,,,,,,,,
9.80000E-04,11.6,,,,,,,,,,,
1.00000E-03,11.2,,,,,,,,,,,
1.02000E-03,11,,,,,,,,,,,
1.04000E-03,11.4,,,,,,,,,,,
1.06000E-03,11.6,,,,,,,,,,,
1.08000E-03,11.2,,,,,,,,,,,
1.10000E-03,11.4,,,,,,,,,,,
1.12000E-03,11.4,,,,,,,,,,,
1.14000E-03,11.4,,,,,,,,,,,
1.16000E-03,11.2,,,,,,,,,,,
1.18000E-03,11.4,,,,,,,,,,,
1.20000E-03,11.2,,,,,,,,,,,
1.22000E-03,11,,,,,,,,,,,
1.24000E-03,11.2,,,,,,,,,,,
1.26000E-03,11,,,,,,,,,,,
1.28000E-03,11.2,,,,,,,,,,,
1.30000E-03,11.4,,,,,,,,,,,
1.32000E-03,11,,,,,,,,,,,
1.34000E-03,11.2,,,,,,,,,,,
1.36000E-03,11.4,,,,,,,,,,,
1.38000E-03,11.2,,,,,,,,,,,
1.40000E-03,11.4,,,,,,,,,,,
1.42000E-03,11,,,,,,,,,,,
1.44000E-03,11.2,,,,,,,,,,,
1.46000E-03,11.4,,,,,,,,,,,
1.48000E-03,11.2,,,,,,,,,,,
1.50000E-03,10.8,,,,,,,,,,,
1.52000E-03,11,,,,,,,,,,,
1.54000E-03,11,,,,,,,,,,,
1.56000E-03,11,,,,,,,,,,,
1.58000E-03,10.8,,,,,,,,,,,
1.60000E-03,11,,,,,,,,,,,
1.62000E-03,10.8,,,,,,,,,,,
1.64000E-03,11,,,,,,,,,,,
1.66000E-03,11,,,,,,,,,,,
1.68000E-03,11.2,,,,,,,,,,,
1.70000E-03,11,,,,,,,,,,,
1.72000E-03,11.2,,,,,,,,,,,
1.74000E-03,11.2,,,,,,,,,,,
1.76000E-03,10.6,,,,,,,,,,,
1.78000E-03,10.8,,,,,,,,,,,
1.80000E-03,10.8,,,,,,,,,,,
1.82000E-03,10.8,,,,,,,,,,,
1.84000E-03,11,,,,,,,,,,,
1.86000E-03,10.8,,,,,,,,,,,
1.88000E-03,11,,,,,,,,,,,
1.90000E-03,10.8,,,,,,,,,,,
1.92000E-03,10.6,,,,,,,,,,,
1.94000E-03,10.6,,,,,,,,,,,
1.96000E-03,10.8,,,,,,,,,,,
1.98000E-03,10.6,,,,,,,,,,,
2.00000E-03,10.8,,,,,,,,,,,
2.02000E-03,10.8,,,,,,,,,,,
2.04000E-03,10.6,,,,,,,,,,,
2.06000E-03,10.6,,,,,,,,,,,
2.08000E-03,10.4,,,,,,,,,,,
2.10000E-03,10.6,,,,,,,,,,,
2.12000E-03,10.6,,,,,,,,,,,
2.14000E-03,10.4,,,,,,,,,,,
2.16000E-03,10.6,,,,,,,,,,,
2.18000E-03,10.6,,,,,,,,,,,
2.20000E-03,10.4,,,,,,,,,,,
2.22000E-03,10.4,,,,,,,,,,,
2.24000E-03,10.6,,,,,,,,,,,
2.26000E-03,10.6,,,,,,,,,,,
2.28000E-03,10.6,,,,,,,,,,,
2.30000E-03,10.4,,,,,,,,,,,
2.32000E-03,10.4,,,,,,,,,,,
2.34000E-03,10.4,,,,,,,,,,,
2.36000E-03,10.4,,,,,,,,,,,
2.38000E-03,10.4,,,,,,,,,,,
2.40000E-03,10.4,,,,,,,,,,,
2.42000E-03,10.8,,,,,,,,,,,
2.44000E-03,10.6,,,,,,,,,,,
2.46000E-03,10.2,,,,,,,,,,,
2.48000E-03,10.4,,,,,,,,,,,
2.50000E-03,10.6,,,,,,,,,,,
2.52000E-03,10.4,,,,,,,,,,,
2.54000E-03,10.6,,,,,,,,,,,
2.56000E-03,10.4,,,,,,,,,,,
2.58000E-03,10.2,,,,,,,,,,,
2.60000E-03,10.4,,,,,,,,,,,
2.62000E-03,10.2,,,,,,,,,,,
2.64000E-03,10.2,,,,,,,,,,,
2.66000E-03,10.2,,,,,,,,,,,
2.68000E-03,10.2,,,,,,,,,,,
2.70000E-03,10.2,,,,,,,,,,,
2.72000E-03,10.2,,,,,,,,,,,
2.74000E-03,10.2,,,,,,,,,,,
2.76000E-03,10,,,,,,,,,,,
2.78000E-03,10.2,,,,,,,,,,,
2.80000E-03,10.2,,,,,,,,,,,
2.82000E-03,10,,,,,,,,,,,
2.84000E-03,10.2,,,,,,,,,,,
2.86000E-03,10,,,,,,,,,,,
2.88000E-03,10.2,,,,,,,,,,,
2.90000E-03,10.4,,,,,,,,,,,
2.92000E-03,10,,,,,,,,,,,
2.94000E-03,10,,,,,,,,,,,
2.96000E-03,10,,,,,,,,,,,
2.98000E-03,10.2,,,,,,,,,,,
3.00000E-03,10.2,,,,,,,,,,,
3.02000E-03,10,,,,,,,,,,,
3.04000E-03,10.2,,,,,,,,,,,
3.06000E-03,10,,,,,,,,,,,
3.08000E-03,10,,,,,,,,,,,
3.10000E-03,10,,,,,,,,,,,
3.12000E-03,9.8,,,,,,,,,,,
3.14000E-03,9.8,,,,,,,,,,,
3.16000E-03,9.8,,,,,,,,,,,
3.18000E-03,10,,,,,,,,,,,
3.20000E-03,10,,,,,,,,,,,
3.22000E-03,9.8,,,,,,,,,,,
3.24000E-03,10,,,,,,,,,,,
3.26000E-03,9.8,,,,,,,,,,,
3.28000E-03,9.8,,,,,,,,,,,
3.30000E-03,9.8,,,,,,,,,,,
3.32000E-03,9.8,,,,,,,,,,,
3.34000E-03,9.8,,,,,,,,,,,
3.36000E-03,9.8,,,,,,,,,,,
3.38000E-03,9.8,,,,,,,,,,,
3.40000E-03,9.6,,,,,,,,,,,
3.42000E-03,9.8,,,,,,,,,,,
3.44000E-03,9.6,,,,,,,,,,,
3.46000E-03,9.6,,,,,,,,,,,
3.48000E-03,9.6,,,,,,,,,,,
3.50000E-03,9.8,,,,,,,,,,,
3.52000E-03,9.6,,,,,,,,,,,
3.54000E-03,9.6,,,,,,,,,,,
3.56000E-03,9.8,,,,,,,,,,,
3.58000E-03,9.6,,,,,,,,,,,
3.60000E-03,9.6,,,,,,,,,,,
3.62000E-03,9.8,,,,,,,,,,,
3.64000E-03,9.6,,,,,,,,,,,
3.66000E-03,9.6,,,,,,,,,,,
3.68000E-03,9.6,,,,,,,,,,,
3.70000E-03,9.6,,,,,,,,,,,
3.72000E-03,9.4,,,,,,,,,,,
3.74000E-03,9.4,,,,,,,,,,,
3.76000E-03,9.6,,,,,,,,,,,
3.78000E-03,9.6,,,,,,,,,,,
3.80000E-03,9.6,,,,,,,,,,,
3.82000E-03,9.6,,,,,,,,,,,
3.84000E-03,9.6,,,,,,,,,,,
3.86000E-03,9.6,,,,,,,,,,,
3.88000E-03,9.4,,,,,,,,,,,
3.90000E-03,9.4,,,,,,,,,,,
3.92000E-03,9.4,,,,,,,,,,,
3.94000E-03,9.6,,,,,,,,,,,
3.96000E-03,9.4,,,,,,,,,,,
3.98000E-03,9.4,,,,,,,,,,,
4.00000E-03,9.6,,,,,,,,,,,
4.02000E-03,9.6,,,,,,,,,,,
4.04000E-03,9.2,,,,,,,,,,,
4.06000E-03,9.6,,,,,,,,,,,
4.08000E-03,9.6,,,,,,,,,,,
4.10000E-03,9.4,,,,,,,,,,,
4.12000E-03,9.2,,,,,,,,,,,
4.14000E-03,9.4,,,,,,,,,,,
4.16000E-03,9.6,,,,,,,,,,,
4.18000E-03,9.2,,,,,,,,,,,
4.20000E-03,9.2,,,,,,,,,,,
4.22000E-03,9.4,,,,,,,,,,,
4.24000E-03,9.4,,,,,,,,,,,
4.26000E-03,9,,,,,,,,,,,
4.28000E-03,9,,,,,,,,,,,
4.30000E-03,9,,,,,,,,,,,
4.32000E-03,9,,,,,,,,,,,
4.34000E-03,9,,,,,,,,,,,
4.36000E-03,9.2,,,,,,,,,,,
4.38000E-03,9.4,,,,,,,,,,,
4.40000E-03,9.2,,,,,,,,,,,
4.42000E-03,9,,,,,,,,,,,
4.44000E-03,9.2,,,,,,,,,,,
4.46000E-03,9.2,,,,,,,,,,,
4.48000E-03,9.2,,,,,,,,,,,
4.50000E-03,9,,,,,,,,,,,
4.52000E-03,9,,,,,,,,,,,
4.54000E-03,9,,,,,,,,,,,
4.56000E-03,9.2,,,,,,,,,,,
4.58000E-03,9.2,,,,,,,,,,,
4.60000E-03,9.2,,,,,,,,,,,
4.62000E-03,9,,,,,,,,,,,
4.64000E-03,9.2,,,,,,,,,,,
4.66000E-03,9.2,,,,,,,,,,,
4.68000E-03,9.2,,,,,,,,,,,
4.70000E-03,9,,,,,,,,,,,
4.72000E-03,9,,,,,,,,,,,
4.74000E-03,9.2,,,,,,,,,,,
4.76000E-03,9.2,,,,,,,,,,,
4.78000E-03,9.2,,,,,,,,,,,
4.80000E-03,9,,,,,,,,,,,
4.82000E-03,9,,,,,,,,,,,
4.84000E-03,9,,,,,,,,,,,
4.86000E-03,8.8,,,,,,,,,,,
4.88000E-03,8.8,,,,,,,,,,,
4.90000E-03,8.8,,,,,,,,,,,
4.92000E-03,8.8,,,,,,,,,,,
4.94000E-03,9,,,,,,,,,,,
4.96000E-03,9,,,,,,,,,,,
4.98000E-03,8.8,,,,,,,,,,,
5.00000E-03,8.8,,,,,,,,,,,
5.02000E-03,8.6,,,,,,,,,,,
5.04000E-03,8.8,,,,,,,,,,,
5.06000E-03,9,,,,,,,,,,,
5.08000E-03,9,,,,,,,,,,,
5.10000E-03,8.8,,,,,,,,,,,
5.12000E-03,8.8,,,,,,,,,,,
5.14000E-03,8.8,,,,,,,,,,,
5.16000E-03,9,,,,,,,,,,,
5.18000E-03,9,,,,,,,,,,,
5.20000E-03,9,,,,,,,,,,,
5.22000E-03,8.8,,,,,,,,,,,
5.24000E-03,8.8,,,,,,,,,,,
5.26000E-03,8.8,,,,,,,,,,,
5.28000E-03,8.8,,,,,,,,,,,
5.30000E-03,8.8,,,,,,,,,,,
5.32000E-03,8.6,,,,,,,,,,,
5.34000E-03,8.6,,,,,,,,,,,
5.36000E-03,8.8,,,,,,,,,,,
5.38000E-03,8.6,,,,,,,,,,,
5.40000E-03,8.4,,,,,,,,,,,
5.42000E-03,8.4,,,,,,,,,,,
5.44000E-03,8.6,,,,,,,,,,,
5.46000E-03,8.8,,,,,,,,,,,
5.48000E-03,8.8,,,,,,,,,,,
5.50000E-03,8.8,,,,,,,,,,,
5.52000E-03,8.8,,,,,,,,,,,
5.54000E-03,8.8,,,,,,,,,,,
5.56000E-03,8.8,,,,,,,,,,,
5.58000E-03,8.8,,,,,,,,,,,
5.60000E-03,8.6,,,,,,,,,,,
5.62000E-03,8.4,,,,,,,,,,,
5.64000E-03,8.2,,,,,,,,,,,
5.66000E-03,8.4,,,,,,,,,,,
5.68000E-03,8.4,,,,,,,,,,,
5.70000E-03,8.6,,,,,,,,,,,
5.72000E-03,8.2,,,,,,,,,,,
5.74000E-03,8.6,,,,,,,,,,,
5.76000E-03,8.4,,,,,,,,,,,
5.78000E-03,8.4,,,,,,,,,,,
5.80000E-03,8.4,,,,,,,,,,,
5.82000E-03,8.4,,,,,,,,,,,
5.84000E-03,8.4,,,,,,,,,,,
5.86000E-03,8.4,,,,,,,,,,,
5.88000E-03,8.4,,,,,,,,,,,
5.90000E-03,8.4,,,,,,,,,,,
5.92000E-03,8.2,,,,,,,,,,,
5.94000E-03,8.2,,,,,,,,,,,
5.96000E-03,8.2,,,,,,,,,,,
5.98000E-03,8.4,,,,,,,,,,,
6.00000E-03,8.2,,,,,,,,,,,
6.02000E-03,8.4,,,,,,,,,,,
6.04000E-03,8.4,,,,,,,,,,,
6.06000E-03,8.2,,,,,,,,,,,
6.08000E-03,8,,,,,,,,,,,
6.10000E-03,8,,,,,,,,,,,
6.12000E-03,8.2,,,,,,,,,,,
6.14000E-03,8.2,,,,,,,,,,,
6.16000E-03,8.2,,,,,,,,,,,
6.18000E-03,8.4,,,,,,,,,,,
6.20000E-03,8.2,,,,,,,,,,,
6.22000E-03,8.4,,,,,,,,,,,
6.24000E-03,8.4,,,,,,,,,,,
6.26000E-03,7.8,,,,,,,,,,,
6.28000E-03,8,,,,,,,,,,,
6.30000E-03,8.2,,,,,,,,,,,
6.32000E-03,8,,,,,,,,,,,
6.34000E-03,8,,,,,,,,,,,
6.36000E-03,7.8,,,,,,,,,,,
6.38000E-03,8,,,,,,,,,,,
6.40000E-03,8.4,,,,,,,,,,,
6.42000E-03,8.2,,,,,,,,,,,
6.44000E-03,8,,,,,,,,,,,
6.46000E-03,8.2,,,,,,,,,,,
6.48000E-03,8.2,,,,,,,,,,,
6.50000E-03,8,,,,,,,,,,,
6.52000E-03,8,,,,,,,,,,,
6.54000E-03,8.2,,,,,,,,,,,
6.56000E-03,8,,,,,,,,,,,
6.58000E-03,8,,,,,,,,,,,
6.60000E-03,8,,,,,,,,,,,
6.62000E-03,7.8,,,,,,,,,,,
6.64000E-03,8,,,,,,,,,,,
6.66000E-03,8.2,,,,,,,,,,,
6.68000E-03,8,,,,,,,,,,,
6.70000E-03,8,,,,,,,,,,,
6.72000E-03,8,,,,,,,,,,,
6.74000E-03,8.2,,,,,,,,,,,
6.76000E-03,8,,,,,,,,,,,
6.78000E-03,7.8,,,,,,,,,,,
6.80000E-03,8,,,,,,,,,,,
6.82000E-03,8.2,,,,,,,,,,,
6.84000E-03,8,,,,,,,,,,,
6.86000E-03,7.8,,,,,,,,,,,
6.88000E-03,7.8,,,,,,,,,,,
6.90000E-03,7.8,,,,,,,,,,,
6.92000E-03,7.8,,,,,,,,,,,
6.94000E-03,7.6,,,,,,,,,,,
6.96000E-03,7.8,,,,,,,,,,,
6.98000E-03,8,,,,,,,,,,,
7.00000E-03,8,,,,,,,,,,,
7.02000E-03,7.6,,,,,,,,,,,
7.04000E-03,7.8,,,,,,,,,,,
7.06000E-03,7.8,,,,,,,,,,,
7.08000E-03,8,,,,,,,,,,,
7.10000E-03,7.8,,,,,,,,,,,
7.12000E-03,7.8,,,,,,,,,,,
7.14000E-03,7.8,,,,,,,,,,,
7.16000E-03,7.8,,,,,,,,,,,
7.18000E-03,7.6,,,,,,,,,,,
7.20000E-03,7.8,,,,,,,,,,,
7.22000E-03,7.8,,,,,,,,,,,
7.24000E-03,7.8,,,,,,,,,,,
7.26000E-03,7.6,,,,,,,,,,,
7.28000E-03,7.6,,,,,,,,,,,
7.30000E-03,7.8,,,,,,,,,,,
7.32000E-03,7.8,,,,,,,,,,,
7.34000E-03,7.6,,,,,,,,,,,
7.36000E-03,7.6,,,,,,,,,,,
7.38000E-03,7.6,,,,,,,,,,,
7.40000E-03,7.6,,,,,,,,,,,
7.42000E-03,7.6,,,,,,,,,,,
7.44000E-03,7.6,,,,,,,,,,,
7.46000E-03,7.6,,,,,,,,,,,
7.48000E-03,7.4,,,,,,,,,,,
7.50000E-03,7.6,,,,,,,,,,,
7.52000E-03,7.8,,,,,,,,,,,
7.54000E-03,7.8,,,,,,,,,,,
7.56000E-03,7.4,,,,,,,,,,,
7.58000E-03,7.8,,,,,,,,,,,
7.60000E-03,7.6,,,,,,,,,,,
7.62000E-03,7.8,,,,,,,,,,,
7.64000E-03,7.8,,,,,,,,,,,
7.66000E-03,7.6,,,,,,,,,,,
7.68000E-03,7.8,,,,,,,,,,,
7.70000E-03,7.6,,,,,,,,,,,
7.72000E-03,7.8,,,,,,,,,,,
7.74000E-03,7.8,,,,,,,,,,,
7.76000E-03,7.8,,,,,,,,,,,
7.78000E-03,7.8,,,,,,,,,,,
7.80000E-03,7.8,,,,,,,,,,,
7.82000E-03,8,,,,,,,,,,,
7.84000E-03,8,,,,,,,,,,,
7.86000E-03,7.8,,,,,,,,,,,
7.88000E-03,8,,,,,,,,,,,
7.90000E-03,8.2,,,,,,,,,,,
7.92000E-03,8,,,,,,,,,,,
7.94000E-03,8.2,,,,,,,,,,,
7.96000E-03,8,,,,,,,,,,,
7.98000E-03,8.2,,,,,,,,,,,
8.00000E-03,8.2,,,,,,,,,,,
8.02000E-03,8,,,,,,,,,,,
8.04000E-03,8.2,,,,,,,,,,,
8.06000E-03,8,,,,,,,,,,,
8.08000E-03,8.4,,,,,,,,,,,
8.10000E-03,8.2,,,,,,,,,,,
8.12000E-03,8.4,,,,,,,,,,,
8.14000E-03,8.4,,,,,,,,,,,
8.16000E-03,8.4,,,,,,,,,,,
8.18000E-03,8,,,,,,,,,,,
8.20000E-03,8.4,,,,,,,,,,,
8.22000E-03,8.2,,,,,,,,,,,
8.24000E-03,8.4,,,,,,,,,,,
8.26000E-03,8.6,,,,,,,,,,,
8.28000E-03,8.8,,,,,,,,,,,
8.30000E-03,8.6,,,,,,,,,,,
8.32000E-03,8.4,,,,,,,,,,,
8.34000E-03,8.8,,,,,,,,,,,
8.36000E-03,8.6,,,,,,,,,,,
8.38000E-03,8.6,,,,,,,,,,,
8.40000E-03,8.8,,,,,,,,,,,
8.42000E-03,8.8,,,,,,,,,,,
8.44000E-03,8.8,,,,,,,,,,,
8.46000E-03,8.8,,,,,,,,,,,
8.48000E-03,9,,,,,,,,,,,
8.50000E-03,9,,,,,,,,,,,
8.52000E-03,8.8,,,,,,,,,,,
8.54000E-03,9,,,,,,,,,,,
8.56000E-03,9,,,,,,,,,,,
8.58000E-03,9.2,,,,,,,,,,,
8.60000E-03,9,,,,,,,,,,,
8.62000E-03,9,,,,,,,,,,,
8.64000E-03,9,,,,,,,,,,,
8.66000E-03,9,,,,,,,,,,,
8.68000E-03,9.2,,,,,,,,,,,
8.70000E-03,9.2,,,,,,,,,,,
8.72000E-03,9.2,,,,,,,,,,,
8.74000E-03,9.2,,,,,,,,,,,
8.76000E-03,9.4,,,,,,,,,,,
8.78000E-03,9.2,,,,,,,,,,,
8.80000E-03,9.4,,,,,,,,,,,
8.82000E-03,9.6,,,,,,,,,,,
8.84000E-03,9.6,,,,,,,,,,,
8.86000E-03,9.4,,,,,,,,,,,
8.88000E-03,9.4,,,,,,,,,,,
8.90000E-03,9.4,,,,,,,,,,,
8.92000E-03,9.6,,,,,,,,,,,
8.94000E-03,9.6,,,,,,,,,,,
8.96000E-03,9.6,,,,,,,,,,,
8.98000E-03,9.6,,,,,,,,,,,
9.00000E-03,9.6,,,,,,,,,,,
9.02000E-03,9.8,,,,,,,,,,,
9.04000E-03,10,,,,,,,,,,,
9.06000E-03,9.8,,,,,,,,,,,
9.08000E-03,10,,,,,,,,,,,
9.10000E-03,9.8,,,,,,,,,,,
9.12000E-03,10.2,,,,,,,,,,,
9.14000E-03,10.2,,,,,,,,,,,
9.16000E-03,10,,,,,,,,,,,
9.18000E-03,10.2,,,,,,,,,,,
9.20000E-03,10.2,,,,,,,,,,,
9.22000E-03,10.4,,,,,,,,,,,
9.24000E-03,10.4,,,,,,,,,,,
9.26000E-03,10.2,,,,,,,,,,,
9.28000E-03,10.2,,,,,,,,,,,
9.30000E-03,10.4,,,,,,,,,,,
9.32000E-03,10.6,,,,,,,,,,,
9.34000E-03,10.4,,,,,,,,,,,
9.36000E-03,10.2,,,,,,,,,,,
9.38000E-03,10.4,,,,,,,,,,,
9.40000E-03,10.8,,,,,,,,,,,
9.42000E-03,10.8,,,,,,,,,,,
9.44000E-03,10.6,,,,,,,,,,,
9.46000E-03,10.8,,,,,,,,,,,
9.48000E-03,10.6,,,,,,,,,,,
9.50000E-03,10.4,,,,,,,,,,,
9.52000E-03,10.6,,,,,,,,,,,
9.54000E-03,10.6,,,,,,,,,,,
9.56000E-03,10.8,,,,,,,,,,,
9.58000E-03,11,,,,,,,,,,,
9.60000E-03,10.6,,,,,,,,,,,
9.62000E-03,11,,,,,,,,,,,
9.64000E-03,10.8,,,,,,,,,,,
9.66000E-03,10.6,,,,,,,,,,,
9.68000E-03,10.8,,,,,,,,,,,
9.70000E-03,11,,,,,,,,,,,
9.72000E-03,11,,,,,,,,,,,
9.74000E-03,11,,,,,,,,,,,
9.76000E-03,11.2,,,,,,,,,,,
9.78000E-03,11,,,,,,,,,,,
9.80000E-03,10.8,,,,,,,,,,,
9.82000E-03,11,,,,,,,,,,,
9.84000E-03,10.8,,,,,,,,,,,
9.86000E-03,10.8,,,,,,,,,,,
9.88000E-03,11,,,,,,,,,,,
9.90000E-03,11,,,,,,,,,,,
9.92000E-03,11,,,,,,,,,,,
9.94000E-03,11.2,,,,,,,,,,,
9.96000E-03,11.2,,,,,,,,,,,
9.98000E-03,11.2,,,,,,,,,,,
1.00000E-02,11.2,,,,,,,,,,,
1.00200E-02,11.2,,,,,,,,,,,
1.00400E-02,11.2,,,,,,,,,,,
1.00600E-02,11,,,,,,,,,,,
1.00800E-02,11.2,,,,,,,,,,,
1.01000E-02,11,,,,,,,,,,,
1.01200E-02,11.2,,,,,,,,,,,
1.01400E-02,11.2,,,,,,,,,,,
1.01600E-02,11.4,,,,,,,,,,,
1.01800E-02,11.2,,,,,,,,,,,
1.02000E-02,11.6,,,,,,,,,,,
1.02200E-02,11.4,,,,,,,,,,,
1.02400E-02,11.4,,,,,,,,,,,
1.02600E-02,11.4,,,,,,,,,,,
1.02800E-02,11,,,,,,,,,,,
1.03000E-02,11,,,,,,,,,,,
1.03200E-02,11.4,,,,,,,,,,,
1.03400E-02,11.2,,,,,,,,,,,
1.03600E-02,11.4,,,,,,,,,,,
1.03800E-02,11.2,,,,,,,,,,,
1.04000E-02,11.6,,,,,,,,,,,
1.04200E-02,11.4,,,,,,,,,,,
1.04400E-02,11.6,,,,,,,,,,,
1.04600E-02,11.4,,,,,,,,,,,
1.04800E-02,11.2,,,,,,,,,,,
1.05000E-02,11.2,,,,,,,,,,,
1.05200E-02,11.4,,,,,,,,,,,
1.05400E-02,11.4,,,,,,,,,,,
1.05600E-02,11.4,,,,,,,,,,,
1.05800E-02,11.4,,,,,,,,,,,
1.06000E-02,11.4,,,,,,,,,,,
1.06200E-02,11.4,,,,,,,,,,,
1.06400E-02,11.6,,,,,,,,,,,
1.06600E-02,11.6,,,,,,,,,,,
1.06800E-02,11.2,,,,,,,,,,,
1.07000E-02,11,,,,,,,,,,,
1.07200E-02,11.4,,,,,,,,,,,
1.07400E-02,11.4,,,,,,,,,,,
1.07600E-02,11.4,,,,,,,,,,,
1.07800E-02,11.4,,,,,,,,,,,
1.08000E-02,11.4,,,,,,,,,,,
1.08200E-02,11.4,,,,,,,,,,,
1.08400E-02,11.4,,,,,,,,,,,
1.08600E-02,11.6,,,,,,,,,,,
1.08800E-02,11.4,,,,,,,,,,,
1.09000E-02,11.6,,,,,,,,,,,
1.09200E-02,11.2,,,,,,,,,,,
1.09400E-02,11.4,,,,,,,,,,,
1.09600E-02,11.4,,,,,,,,,,,
1.09800E-02,11.4,,,,,,,,,,,
1.10000E-02,11.2,,,,,,,,,,,
1.10200E-02,11.4,,,,,,,,,,,
1.10400E-02,11.4,,,,,,,,,,,
1.10600E-02,11.4,,,,,,,,,,,
1.10800E-02,11.4,,,,,,,,,,,
1.11000E-02,11.2,,,,,,,,,,,
1.11200E-02,11.4,,,,,,,,,,,
1.11400E-02,11.2,,,,,,,,,,,
1.11600E-02,11.2,,,,,,,,,,,
1.11800E-02,11.2,,,,,,,,,,,
1.12000E-02,11.4,,,,,,,,,,,
1.12200E-02,11.2,,,,,,,,,,,
1.12400E-02,11,,,,,,,,,,,
1.12600E-02,11.2,,,,,,,,,,,
1.12800E-02,11.4,,,,,,,,,,,
1.13000E-02,11.2,,,,,,,,,,,
1.13200E-02,11.2,,,,,,,,,,,
1.13400E-02,11.2,,,,,,,,,,,
1.13600E-02,11.4,,,,,,,,,,,
1.13800E-02,11.2,,,,,,,,,,,
1.14000E-02,11.4,,,,,,,,,,,
1.14200E-02,11,,,,,,,,,,,
1.14400E-02,11.2,,,,,,,,,,,
1.14600E-02,11.4,,,,,,,,,,,
1.14800E-02,11.2,,,,,,,,,,,
1.15000E-02,11,,,,,,,,,,,
1.15200E-02,11.2,,,,,,,,,,,
1.15400E-02,11,,,,,,,,,,,
1.15600E-02,10.8,,,,,,,,,,,
1.15800E-02,11,,,,,,,,,,,
1.16000E-02,10.8,,,,,,,,,,,
1.16200E-02,11,,,,,,,,,,,
1.16400E-02,11,,,,,,,,,,,
1.16600E-02,11,,,,,,,,,,,
1.16800E-02,11.2,,,,,,,,,,,
1.17000E-02,11,,,,,,,,,,,
1.17200E-02,10.8,,,,,,,,,,,
1.17400E-02,11,,,,,,,,,,,
1.17600E-02,10.8,,,,,,,,,,,
1.17800E-02,11,,,,,,,,,,,
1.18000E-02,11,,,,,,,,,,,
1.18200E-02,10.8,,,,,,,,,,,
1.18400E-02,11,,,,,,,,,,,
1.18600E-02,10.8,,,,,,,,,,,
1.18800E-02,10.8,,,,,,,,,,,
1.19000E-02,10.6,,,,,,,,,,,
1.19200E-02,10.8,,,,,,,,,,,
1.19400E-02,10.8,,,,,,,,,,,
1.19600E-02,10.6,,,,,,,,,,,
1.19800E-02,10.8,,,,,,,,,,,
1.20000E-02,10.8,,,,,,,,,,,
1.20200E-02,10.6,,,,,,,,,,,
1.20400E-02,11,,,,,,,,,,,
1.20600E-02,10.6,,,,,,,,,,,
1.20800E-02,10.6,,,,,,,,,,,
1.21000E-02,10.6,,,,,,,,,,,
1.21200E-02,10.6,,,,,,,,,,,
1.21400E-02,10.6,,,,,,,,,,,
1.21600E-02,10.8,,,,,,,,,,,
1.21800E-02,10.8,,,,,,,,,,,
1.22000E-02,10.6,,,,,,,,,,,
1.22200E-02,10.6,,,,,,,,,,,
1.22400E-02,10.6,,,,,,,,,,,
1.22600E-02,10.4,,,,,,,,,,,
1.22800E-02,10.4,,,,,,,,,,,
1.23000E-02,10.6,,,,,,,,,,,
1.23200E-02,10.4,,,,,,,,,,,
1.23400E-02,10.6,,,,,,,,,,,
1.23600E-02,10.6,,,,,,,,,,,
1.23800E-02,10.4,,,,,,,,,,,
1.24000E-02,10.6,,,,,,,,,,,
1.24200E-02,10.4,,,,,,,,,,,
1.24400E-02,10.6,,,,,,,,,,,
1.24600E-02,10.2,,,,,,,,,,,
1.24800E-02,10.4,,,,,,,,,,,
1.25000E-02,10.4,,,,,,,,,,,
1.25200E-02,10.4,,,,,,,,,,,
1.25400E-02,10.4,,,,,,,,,,,
1.25600E-02,10.2,,,,,,,,,,,
1.25800E-02,10.4,,,,,,,,,,,
1.26000E-02,10.2,,,,,,,,,,,
1.26200E-02,10.4,,,,,,,,,,,
1.26400E-02,10.2,,,,,,,,,,,
1.26600E-02,10.2,,,,,,,,,,,
1.26800E-02,10.2,,,,,,,,,,,
1.27000E-02,10.2,,,,,,,,,,,
1.27200E-02,10.2,,,,,,,,,,,
1.27400E-02,10.4,,,,,,,,,,,
1.27600E-02,10.2,,,,,,,,,,,
1.27800E-02,10.2,,,,,,,,,,,
1.28000E-02,10.2,,,,,,,,,,,
1.28200E-02,10.4,,,,,,,,,,,
1.28400E-02,10.2,,,,,,,,,,,
1.28600E-02,10,,,,,,,,,,,
1.28800E-02,10,,,,,,,,,,,
1.29000E-02,10,,,,,,,,,,,
1.29200E-02,10,,,,,,,,,,,
1.29400E-02,10,,,,,,,,,,,
1.29600E-02,10,,,,,,,,,,,
1.29800E-02,10,,,,,,,,,,,
1.30000E-02,9.8,,,,,,,,,,,
1.30200E-02,10,,,,,,,,,,,
1.30400E-02,10,,,,,,,,,,,
1.30600E-02,10,,,,,,,,,,,
1.30800E-02,10.2,,,,,,,,,,,
1.31000E-02,10,,,,,,,,,,,
1.31200E-02,10.2,,,,,,,,,,,
1.31400E-02,10,,,,,,,,,,,
1.31600E-02,9.8,,,,,,,,,,,
1.31800E-02,9.8,,,,,,,,,,,
1.32000E-02,9.8,,,,,,,,,,,
1.32200E-02,9.8,,,,,,,,,,,
1.32400E-02,9.8,,,,,,,,,,,
1.32600E-02,10,,,,,,,,,,,
1.32800E-02,10,,,,,,,,,,,
1.33000E-02,9.8,,,,,,,,,,,
1.33200E-02,10,,,,,,,,,,,
1.33400E-02,9.8,,,,,,,,,,,
1.33600E-02,9.8,,,,,,,,,,,
1.33800E-02,10,,,,,,,,,,,
1.34000E-02,9.8,,,,,,,,,,,
1.34200E-02,9.8,,,,,,,,,,,
1.34400E-02,10,,,,,,,,,,,
1.34600E-02,9.8,,,,,,,,,,,
1.34800E-02,9.8,,,,,,,,,,,
1.35000E-02,9.8,,,,,,,,,,,
1.35200E-02,9.6,,,,,,,,,,,
1.35400E-02,9.6,,,,,,,,,,,
1.35600E-02,9.8,,,,,,,,,,,
1.35800E-02,9.8,,,,,,,,,,,
1.36000E-02,9.8,,,,,,,,,,,
1.36200E-02,9.6,,,,,,,,,,,
1.36400E-02,9.4,,,,,,,,,,,
1.36600E-02,9.4,,,,,,,,,,,
1.36800E-02,9.6,,,,,,,,,,,
1.37000E-02,9.4,,,,,,,,,,,
1.37200E-02,9.4,,,,,,,,,,,
1.37400E-02,9.6,,,,,,,,,,,
1.37600E-02,9.6,,,,,,,,,,,
1.37800E-02,9.4,,,,,,,,,,,
1.38000E-02,9.4,,,,,,,,,,,
1.38200E-02,9.4,,,,,,,,,,,
1.38400E-02,9.4,,,,,,,,,,,
1.38600E-02,9.4,,,,,,,,,,,
1.38800E-02,9.4,,,,,,,,,,,
1.39000E-02,9.4,,,,,,,,,,,
1.39200E-02,9.6,,,,,,,,,,,
1.39400E-02,9.4,,,,,,,,,,,
1.39600E-02,9.6,,,,,,,,,,,
1.39800E-02,9.4,,,,,,,,,,,
1.40000E-02,9.4,,,,,,,,,,,
1.40200E-02,9.4,,,,,,,,,,,
1.40400E-02,9.6,,,,,,,,,,,
1.40600E-02,9.2,,,,,,,,,,,
1.40800E-02,9.4,,,,,,,,,,,
1.41000E-02,9.4,,,,,,,,,,,
1.41200E-02,9.4,,,,,,,,,,,
1.41400E-02,9.4,,,,,,,,,,,
1.41600E-02,9.4,,,,,,,,,,,
1.41800E-02,9.4,,,,,,,,,,,
1.42000E-02,9.4,,,,,,,,,,,
1.42200E-02,9.2,,,,,,,,,,,
1.42400E-02,9,,,,,,,,,,,
1.42600E-02,9.4,,,,,,,,,,,
1.42800E-02,9.2,,,,,,,,,,,
1.43000E-02,9,,,,,,,,,,,
1.43200E-02,9.2,,,,,,,,,,,
1.43400E-02,9.4,,,,,,,,,,,
1.43600E-02,9.2,,,,,,,,,,,
1.43800E-02,9.2,,,,,,,,,,,
1.44000E-02,9,,,,,,,,,,,
1.44200E-02,9,,,,,,,,,,,
1.44400E-02,9.2,,,,,,,,,,,
1.44600E-02,9.2,,,,,,,,,,,
1.44800E-02,9.2,,,,,,,,,,,
1.45000E-02,9.2,,,,,,,,,,,
1.45200E-02,9.2,,,,,,,,,,,
1.45400E-02,9.2,,,,,,,,,,,
1.45600E-02,9.2,,,,,,,,,,,
1.45800E-02,9,,,,,,,,,,,
1.46000E-02,9,,,,,,,,,,,
